{
  "user": {
    "name": "Carl",
    "photo_url": "https://fedspendingtransparency.github.io/assets/img/user_personas/repurposer_mug.jpg"
  },
  "photo_info": {
    "location": "Chernivtsi",
    "image_list": [
      "https://picsum.photos/id/1025/900/900",
      "https://picsum.photos/id/1012/900/900",
      "https://picsum.photos/id/1029/900/900",
      "https://picsum.photos/id/1020/900/900"
    ],
    "likes": [
      {"user_name": "angel",
        "user_id": 1223232323
      },
      {"user_name": "angel",
        "user_id": 1223232323
      },
      {"user_name": "angel",
        "user_id": 1223232323
      },
      {"user_name": "angel",
        "user_id": 1223232323
      },
      {"user_name": "angel",
        "user_id": 1223232323
      },
      {"user_name": "angel",
        "user_id": 1223232323
      }
    ],
    "comments": [
      {"user_name": "angel",
        "user_id": 1223232323,
        "comment": "dgsgsdgsgwb @gewgewgw"
      },
      {"user_name": "angel",
        "user_id": 1223232323,
        "comment": "dgsgsdgsgwb @gewgewgw"
      },
      {"user_name": "angel",
        "user_id": 1223232323,
        "comment": "dgsgsdgsgwgewgewgw"
      }
    ],
    "published_date": 1594220286662
  }
}